…
class2022_matrix <- as_edgelist(class2022, names = TRUE)
edges <- data.frame(from = class2022_matrix[,1], to = class2022_matrix[,2])
```

``` r
# Seed nod with the highest betweenness
seed_nod = tibble(id = 1:140, B=betweenness(class2022), D=degree(class2022), C=transitivity(class2022, 'local'), TH=class2022_attributes$pYoutube) %>% arrange(-B)
seed_nod
```

    ## # A tibble: 140 × 5
    ##       id     B     D     C    TH
    ##    <int> <dbl> <dbl> <dbl> <dbl>
    ##  1    20  550.    18 0.275 0.225
    ##  2    71  546.    16 0.233 0.225
    ##  3    80  541.    16 0.233 0.225
    ##  4   106  494.    15 0.181 0.325
    ##  5     2  483.    14 0.209 0.225
    ##  6     8  419.     8 0.25  0.325
    ##  7   104  398.    10 0.267 0.325
    ##  8    66  382.    10 0.289 0.325
    ##  9   122  363.    14 0.352 0.425
    ## 10    65  344.    13 0.231 0.425
    ## # … with 130 more rows
…
class2022_matrix <- as_edgelist(class2022, names = TRUE)
edges <- data.frame(from = class2022_matrix[,1], to = class2022_matrix[,2])
```

``` r
# Seed nod 109
seed_nod = tibble(id = 1:140, B=betweenness(class2022), D=degree(class2022), C=transitivity(class2022, 'local'), Recipy_TH=class2022_attributes$tRecipe) %>% arrange(-C, -D)
seed_nod
```

    ## # A tibble: 140 × 5
    ##       id     B     D     C Recipy_TH
    ##    <int> <dbl> <dbl> <dbl>     <dbl>
    ##  1    88  0        5 1        0.92  
    ##  2    47  0        4 1        0.67  
    ##  3    35  0        3 1        0.0125
    ##  4    43  0        3 1        0.67  
    ##  5    78  0        3 1        0.92  
    ##  6    52  0        2 1        0.0125
    ##  7    63  0        2 1        0.33  
    ##  8   109  1.61     7 0.905    0.0125
    ##  9   102  4.72     7 0.857    0.0125
    ## 10    11  2.52     4 0.833    0.0925
    ## # … with 130 more rows
…
adj_matrix <- igraph::as_adjacency_matrix(class2022, type = 'both')
each_neighbors <- which(adj_matrix > 0, arr.ind = TRUE)
each_neighbors <- split(each_neighbors[, 2], each_neighbors[, 1])

lala2 = lala %>% arrange(-B)

candidates = lala2 %>% mutate(total_comm_D=sapply(FUN = justin, ID, each_neighbors, lala2, communities_grouped))
```

``` r
candidates %>% arrange(-total_comm_D, -D)
```

    ## # A tibble: 140 × 5
    ##       ID     B commID     D total_comm_D
    ##    <int> <dbl>  <int> <dbl>        <dbl>
    ##  1    20  550.     11    18          254
    ##  2    80  541.      5    16          243
    ##  3    71  546.      4    16          228
    ##  4   106  494.      2    15          219
    ##  5   122  363.      5    14          208
    ##  6     2  483.      4    14          205
    ##  7    65  344.      4    13          203
    ##  8   100  335.      4    13          203
    ##  9    50  279.     11    12          197
    ## 10   138  266.      6    14          196
    ## # … with 130 more rows
…
